<?xml version="1.0" encoding="UTF-8" standalone="no"?>
<!-- Created with Inkscape (http://www.inkscape.org/) -->

<svg
   id="svg2"
   sodipodi:version="0.32"
   inkscape:version="1.2.2 (b0a8486541, 2022-12-01)"
   width="26"
   height="20"
   version="1.0"
   sodipodi:docname="svg.svg"
   inkscape:output_extension="org.inkscape.output.svg.inkscape"
   inkscape:export-filename="/home/doctormo/Desktop/small-pd.png"
   inkscape:export-xdpi="90"
   inkscape:export-ydpi="90"
   xmlns:inkscape="http://www.inkscape.org/namespaces/inkscape"
   xmlns:sodipodi="http://sodipodi.sourceforge.net/DTD/sodipodi-0.dtd"
   xmlns="http://www.w3.org/2000/svg"
   xmlns:svg="http://www.w3.org/2000/svg"
   xmlns:rdf="http://www.w3.org/1999/02/22-rdf-syntax-ns#"
   xmlns:cc="http://creativecommons.org/ns#"
   xmlns:dc="http://purl.org/dc/elements/1.1/">
  <path
     id="path16672-9"
     style="color:#000000;stroke-width:0.809266;stroke-linecap:round;-inkscape-stroke:none"
     d="m 5.5467099,5.0922559 c -1.331099,0 -2.4198892,1.0872096 -2.4198892,2.4183087 -1e-7,1.331099 1.0887901,2.4183084 2.4198892,2.4183084 0.7195642,0 1.3675586,-0.3181282 1.8113605,-0.8203281 l 4.9614826,2.9920641 c -0.02052,0.126277 -0.03161,0.25536 -0.03161,0.387245 0,1.331099 1.087209,2.41989 2.418308,2.41989 1.3311,0 2.41989,-1.088791 2.41989,-2.41989 0,-0.358433 -0.07991,-0.698659 -0.221284,-1.005257 l 1.972581,-1.5047254 c 0.424453,0.3662644 0.975869,0.5879804 1.577433,0.5879804 1.331099,0 2.418308,-1.0872098 2.418308,-2.4183081 0,-1.3310988 -1.087209,-2.4183083 -2.418308,-2.4183084 -1.331098,1e-7 -2.419889,1.0872096 -2.41989,2.4183084 1e-6,0.4386506 0.117838,0.850494 0.324022,1.2059933 l -1.910939,1.4588878 c -0.440977,-0.457784 -1.059475,-0.742879 -1.741817,-0.742879 -0.907801,0 -1.701413,0.506401 -2.114835,1.25025 L 7.7848304,8.4225673 c 0.115649,-0.281877 0.180188,-0.5894978 0.180188,-0.9120027 0,-1.3310991 -1.0872096,-2.4183086 -2.4183085,-2.4183087 z m 0,0.8092641 c 0.8937848,2e-7 1.6090445,0.7152597 1.6090445,1.6090446 0,0.8937849 -0.7152596,1.6106251 -1.6090445,1.6106251 -0.8937849,0 -1.6106252,-0.7168402 -1.6106251,-1.6106251 0,-0.8937849 0.7168402,-1.6090446 1.6106251,-1.6090446 z M 20.45487,6.5384994 c 0.893786,0 1.609045,0.7152596 1.609045,1.6090445 0,0.8937846 -0.71526,1.6090443 -1.609045,1.6090443 -0.893784,0 -1.610625,-0.7152597 -1.610626,-1.6090443 0,-0.8937849 0.716842,-1.6090445 1.610626,-1.6090445 z m -5.748619,4.3403096 c 0.893784,0 1.610625,0.71526 1.610625,1.609045 0,0.893785 -0.716841,1.610626 -1.610625,1.610626 -0.893785,0 -1.609045,-0.716841 -1.609045,-1.610626 0,-0.893785 0.71526,-1.609045 1.609045,-1.609045 z" />
  <metadata
     id="metadata7">
    <rdf:RDF>
      <cc:Work
         rdf:about="">
        <dc:format>image/svg+xml</dc:format>
        <dc:type
           rdf:resource="http://purl.org/dc/dcmitype/StillImage" />
      </cc:Work>
    </rdf:RDF>
  </metadata>
  <defs
     id="defs5">
    <foreignObject
       requiredExtensions="http://ns.adobe.com/AdobeIllustrator/10.0/"
       x="0"
       y="0"
       width="1"
       height="1"
       id="foreignObject8" />
  </defs>
  <sodipodi:namedview
     inkscape:window-height="707"
     inkscape:window-width="1366"
     inkscape:pageshadow="2"
     inkscape:pageopacity="0"
     guidetolerance="10.0"
     gridtolerance="10.0"
     objecttolerance="10.0"
     borderopacity="1.0"
     bordercolor="#666666"
     pagecolor="#ffd7d7"
     id="base"
     showgrid="false"
     inkscape:zoom="11.313708"
     inkscape:cx="11.181126"
     inkscape:cy="5.5684661"
     inkscape:window-x="0"
     inkscape:window-y="0"
     inkscape:current-layer="svg2"
     inkscape:window-maximized="1"
     showguides="false"
     inkscape:snap-global="true"
     fit-margin-top="0"
     fit-margin-left="0"
     fit-margin-right="0"
     fit-margin-bottom="0"
     inkscape:snap-bbox="false"
     inkscape:snap-page="true"
     inkscape:snap-grids="false"
     inkscape:snap-to-guides="false"
     inkscape:snap-nodes="false"
     inkscape:snap-others="false"
     inkscape:showpageshadow="2"
     inkscape:pagecheckerboard="0"
     inkscape:deskcolor="#d1d1d1" />
</svg>
